Chapter 4 Time Series Features, Exercise
…
Chapter 4 Time Series Features, Exercise

Abhishek Gupta

11/09/2020

Question 1

PBS

## # A tsibble: 65,219 x 9 [1M]
## # Key:       Concession, Type, ATC1, ATC2 [336]
##       Month Concession  Type   ATC1  ATC1_desc   ATC2  ATC2_desc   Scripts  Cost
##       <mth> <chr>       <chr>  <chr> <chr>       <chr> <chr>         <dbl> <dbl>
##  1 1991 Jul Concession~ Co-pa~ A     Alimentary~ A01   STOMATOLOG~   18228 67877
##  2 1991 Aug Concession~ Co-pa~ A     Alimentary~ A01   STOMATOLOG~   15327 57011
##  3 1991 Sep Concession~ Co-pa~ A     Alimentary~ A01   STOMATOLOG~   14775 55020
##  4 1991 Oct Concession~ Co-pa~ A     Alimentary~ A01   STOMATOLOG~   15380 57222
##  5 1991 Nov Concession~ Co-pa~ A     Alimentary~ A01   STOMATOLOG~   14371 52120
##  6 1991 Dec Concession~ Co-pa~ A     Alimentary~ A01   STOMATOLOG~   15028 54299
##  7 1992 Jan Concession~ Co-pa~ A     Alimentary~ A01   STOMATOLOG~   11040 39753
##  8 1992 Feb Concession~ Co-pa~ A     Alimentary~ A01   STOMATOLOG~   15165 54405
##  9 1992 Mar Concession~ Co-pa~ A     Alimentary~ A01   STOMATOLOG~   16898 61108
## 10 1992 Apr Concession~ Co-pa~ A     Alimentary~ A01   STOMATOLOG~   18141 65356
## # ... with 65,209 more rows

stat_PBS <- PBS %>% features(Cost, list(std=sd, mean=mean))

stat_PBS

## # A tibble: 336 x 6
##    Concession   Type        ATC1  ATC2       std      mean
##    <chr>        <chr>       <chr> <chr>    <dbl>     <dbl>
##  1 Concessional Co-payments A     A01     14763.    67673.
##  2 Concessional Co-payments A     A02   7498596. 16455044.
##  3 Concessional Co-payments A     A03    370696.   476221.
##  4 Concessional Co-payments A     A04    154020.   463392.
##  5 Concessional Co-payments A     A05     74190.   147604.
##  6 Concessional Co-payments A     A06    163040.   417889.
##  7 Concessional Co-payments A     A07    338081.   917795.
##  8 Concessional Co-payments A     A09     89815.   343881.
##  9 Concessional Co-payments A     A10   3180294.  5680010.
## 10 Concessional Co-payments A     A11    387439.   651863.
## # ... with 326 more rows
…
tourism_features <- tourism %>%
  features(Trips, feat_stl)
tourism_features

## # A tibble: 304 x 12
##    Region State Purpose trend_strength seasonal_streng~ seasonal_peak_y~
##    <chr>  <chr> <chr>            <dbl>            <dbl>            <dbl>
##  1 Adela~ Sout~ Busine~          0.451            0.380                3
##  2 Adela~ Sout~ Holiday          0.541            0.601                1
##  3 Adela~ Sout~ Other            0.743            0.189                2
##  4 Adela~ Sout~ Visiti~          0.433            0.446                1
##  5 Adela~ Sout~ Busine~          0.453            0.140                3
##  6 Adela~ Sout~ Holiday          0.512            0.244                2
##  7 Adela~ Sout~ Other            0.584            0.374                2
##  8 Adela~ Sout~ Visiti~          0.481            0.228                0
##  9 Alice~ Nort~ Busine~          0.526            0.224                0
## 10 Alice~ Nort~ Holiday          0.377            0.827                3
## # ... with 294 more rows, and 6 more variables: seasonal_trough_year <dbl>,
## #   spikiness <dbl>, linearity <dbl>, curvature <dbl>, stl_e_acf1 <dbl>,
## #   stl_e_acf10 <dbl>
…
