Chapter 3 Time Series Decomposition
…
## Warning: Problem with `mutate()` input `5-MA`.
## x `slide()` is deprecated as of tsibble 0.9.0.
## Please use `slider::slide()` instead.
## This warning is displayed once every 8 hours.
## Call `lifecycle::last_warnings()` to see where this warning was generated.
## i Input `5-MA` is `slide_dbl(Exports, mean, .size = 5, .align = "center")`.

## Warning: `slide()` is deprecated as of tsibble 0.9.0.
## Please use `slider::slide()` instead.
## This warning is displayed once every 8 hours.
## Call `lifecycle::last_warnings()` to see where this warning was generated.

aus_exports

## # A tsibble: 58 x 10 [1Y]
## # Key:       Country [1]
##    Country  Code   Year       GDP Growth   CPI Imports Exports Population `5-MA`
##    <fct>    <fct> <dbl>     <dbl>  <dbl> <dbl>   <dbl>   <dbl>      <dbl>  <dbl>
##  1 Austral~ AUS    1960   1.86e10  NA     7.96    14.1    13.0   10276477   NA  
##  2 Austral~ AUS    1961   1.96e10   2.49  8.14    15.0    12.4   10483000   NA  
##  3 Austral~ AUS    1962   1.99e10   1.30  8.12    12.6    13.9   10742000   13.5
##  4 Austral~ AUS    1963   2.15e10   6.21  8.17    13.8    13.0   10950000   13.5
##  5 Austral~ AUS    1964   2.38e10   6.98  8.40    13.8    14.9   11167000   13.6
##  6 Austral~ AUS    1965   2.59e10   5.98  8.69    15.3    13.2   11388000   13.4
##  7 Austral~ AUS    1966   2.73e10   2.38  8.98    15.1    12.9   11651000   13.3
##  8 Austral~ AUS    1967   3.04e10   6.30  9.29    13.9    12.9   11799000   12.7
##  9 Austral~ AUS    1968   3.27e10   5.10  9.52    14.5    12.3   12009000   12.6
## 10 Austral~ AUS    1969   3.66e10   7.04  9.83    13.3    12.0   12263000   12.6
## # ... with 48 more rows
…
Moving Average of Moving Averages

beer <- aus_production %>%
  filter(year(Quarter) >= 1992) %>%
  select(Quarter, Beer)
beer_ma <- beer %>%
  mutate(
    `4-MA` = slide_dbl(Beer, mean, .size = 4, .align = "center-left"),
    `2x4-MA` = slide_dbl(`4-MA`, mean, .size = 2, .align = "center-right")
  )
beer_ma

## # A tsibble: 74 x 4 [1Q]
##    Quarter  Beer `4-MA` `2x4-MA`
##      <qtr> <dbl>  <dbl>    <dbl>
##  1 1992 Q1   443    NA       NA 
##  2 1992 Q2   410   451.      NA 
##  3 1992 Q3   420   449.     450 
##  4 1992 Q4   532   452.     450.
##  5 1993 Q1   433   449      450.
##  6 1993 Q2   421   444      446.
##  7 1993 Q3   410   448      446 
##  8 1993 Q4   512   438      443 
##  9 1994 Q1   449   441.     440.
## 10 1994 Q2   381   446      444.
## # ... with 64 more rows
…
