Chapter 5 Forecaster’s Toolbox
…
TSLM(GDP ~ trend())

## <TSLM model definition>

Train the model

fit <- global_economy %>%
  model(trend_model = TSLM(GDP ~ trend()))

## Warning: 7 errors (1 unique) encountered for trend_model
## [7] 0 (non-NA) cases

fit

## # A mable: 263 x 2
## # Key:     Country [263]
##    Country             trend_model
##    <fct>                   <model>
##  1 Afghanistan              <TSLM>
##  2 Albania                  <TSLM>
##  3 Algeria                  <TSLM>
##  4 American Samoa           <TSLM>
##  5 Andorra                  <TSLM>
##  6 Angola                   <TSLM>
##  7 Antigua and Barbuda      <TSLM>
##  8 Arab World               <TSLM>
##  9 Argentina                <TSLM>
## 10 Armenia                  <TSLM>
## # ... with 253 more rows

Evaluate

Forecast

fit %>% forecast(h = "3 years")

## # A fable: 789 x 5 [1Y]
## # Key:     Country, .model [263]
##    Country        .model       Year                 GDP         .mean
##    <fct>          <chr>       <dbl>              <dist>         <dbl>
##  1 Afghanistan    trend_model  2018 N(1.6e+10, 1.3e+19)  16205101654.
##  2 Afghanistan    trend_model  2019 N(1.7e+10, 1.3e+19)  16511878141.
##  3 Afghanistan    trend_model  2020 N(1.7e+10, 1.3e+19)  16818654627.
##  4 Albania        trend_model  2018 N(1.4e+10, 3.9e+18)  13733734164.
##  5 Albania        trend_model  2019 N(1.4e+10, 3.9e+18)  14166852711.
##  6 Albania        trend_model  2020 N(1.5e+10, 3.9e+18)  14599971258.
##  7 Algeria        trend_model  2018 N(1.6e+11, 9.4e+20) 157895153441.
##  8 Algeria        trend_model  2019 N(1.6e+11, 9.4e+20) 161100952126.
##  9 Algeria        trend_model  2020 N(1.6e+11, 9.4e+20) 164306750811.
## 10 American Samoa trend_model  2018 N(6.8e+08, 1.7e+15)    682475000 
## # ... with 779 more rows
…
bricks <- aus_production %>% filter(between(year(Quarter), 1970, 2004))
bricks

## # A tsibble: 140 x 7 [1Q]
##    Quarter  Beer Tobacco Bricks Cement Electricity   Gas
##      <qtr> <dbl>   <dbl>  <dbl>  <dbl>       <dbl> <dbl>
##  1 1970 Q1   387    6807    386   1049       12328    12
##  2 1970 Q2   357    7612    428   1134       14493    18
##  3 1970 Q3   374    7862    434   1229       15664    23
##  4 1970 Q4   466    7126    417   1188       13781    20
##  5 1971 Q1   410    7255    385   1058       13299    19
##  6 1971 Q2   370    8076    433   1209       15230    23
##  7 1971 Q3   379    8405    453   1199       16667    28
##  8 1971 Q4   487    7974    436   1253       14484    24
##  9 1972 Q1   419    6500    399   1070       13838    24
## 10 1972 Q2   378    7119    461   1282       15919    34
## # ... with 130 more rows
…
Residuals

augment(beer_fit)

## # A tsibble: 180 x 5 [1Q]
## # Key:       .model [3]
##    .model Quarter  Beer .fitted .resid
##    <chr>    <qtr> <dbl>   <dbl>  <dbl>
##  1 Mean   1992 Q1   443    436.   6.55
##  2 Mean   1992 Q2   410    436. -26.4 
##  3 Mean   1992 Q3   420    436. -16.4 
##  4 Mean   1992 Q4   532    436.  95.6 
##  5 Mean   1993 Q1   433    436.  -3.45
##  6 Mean   1993 Q2   421    436. -15.4 
##  7 Mean   1993 Q3   410    436. -26.4 
##  8 Mean   1993 Q4   512    436.  75.6 
##  9 Mean   1994 Q1   449    436.  12.6 
## 10 Mean   1994 Q2   381    436. -55.4 
## # ... with 170 more rows
…
Prediction intervals from bootstrapped residuals

fit <- google_2015 %>%
  model(NAIVE(Close))
sim <- fit %>% generate(h = 30, times = 5, bootstrap = TRUE)
sim

## # A tsibble: 150 x 5 [1]
## # Key:       Symbol, .model, .rep [5]
##    Symbol .model         day .rep   .sim
##    <chr>  <chr>        <dbl> <chr> <dbl>
##  1 GOOG   NAIVE(Close)   505 1      772.
##  2 GOOG   NAIVE(Close)   506 1      763.
##  3 GOOG   NAIVE(Close)   507 1      767.
##  4 GOOG   NAIVE(Close)   508 1      764.
##  5 GOOG   NAIVE(Close)   509 1      757.
##  6 GOOG   NAIVE(Close)   510 1      765.
##  7 GOOG   NAIVE(Close)   511 1      763.
##  8 GOOG   NAIVE(Close)   512 1      762.
##  9 GOOG   NAIVE(Close)   513 1      763.
## 10 GOOG   NAIVE(Close)   514 1      761.
## # ... with 140 more rows
…
fc <- fit %>% forecast(h = 30, bootstrap = TRUE)
fc

## # A fable: 30 x 5 [1]
## # Key:     Symbol, .model [1]
##    Symbol .model         day        Close .mean
##    <chr>  <chr>        <dbl>       <dist> <dbl>
##  1 GOOG   NAIVE(Close)   505 sample[5000]  759.
##  2 GOOG   NAIVE(Close)   506 sample[5000]  759.
##  3 GOOG   NAIVE(Close)   507 sample[5000]  759.
##  4 GOOG   NAIVE(Close)   508 sample[5000]  759.
##  5 GOOG   NAIVE(Close)   509 sample[5000]  759.
##  6 GOOG   NAIVE(Close)   510 sample[5000]  759.
##  7 GOOG   NAIVE(Close)   511 sample[5000]  759.
##  8 GOOG   NAIVE(Close)   512 sample[5000]  759.
##  9 GOOG   NAIVE(Close)   513 sample[5000]  759.
## 10 GOOG   NAIVE(Close)   514 sample[5000]  760.
## # ... with 20 more rows
…
Evaluating forecast accuracy

Function to subset a time series

aus_production %>% filter(quarter(Quarter) == 1)

## # A tsibble: 55 x 7 [1Q]
##    Quarter  Beer Tobacco Bricks Cement Electricity   Gas
##      <qtr> <dbl>   <dbl>  <dbl>  <dbl>       <dbl> <dbl>
##  1 1956 Q1   284    5225    189    465        3923     5
##  2 1957 Q1   262    5577    187    529        4339     5
##  3 1958 Q1   272    5758    199    554        4608     5
##  4 1959 Q1   261    5478    208    573        4883     5
##  5 1960 Q1   286    5980    242    621        5387     6
##  6 1961 Q1   295    6022    241    688        5709     6
##  7 1962 Q1   279    6072    229    637        6098     6
##  8 1963 Q1   294    6051    231    674        6707     6
##  9 1964 Q1   313    5890    293    797        7469     6
## 10 1965 Q1   331    6201    309    902        8170     6
## # ... with 45 more rows
…
aus_retail %>%
  group_by(State, Industry) %>%
  slice(1:12)

## # A tsibble: 1,824 x 5 [1M]
## # Key:       State, Industry [152]
## # Groups:    State, Industry [152]
##    State               Industry                    `Series ID`    Month Turnover
##    <chr>               <chr>                       <chr>          <mth>    <dbl>
##  1 Australian Capital~ Cafes, restaurants and cat~ A3349849A   1982 Apr      4.4
##  2 Australian Capital~ Cafes, restaurants and cat~ A3349849A   1982 May      3.4
##  3 Australian Capital~ Cafes, restaurants and cat~ A3349849A   1982 Jun      3.6
##  4 Australian Capital~ Cafes, restaurants and cat~ A3349849A   1982 Jul      4  
##  5 Australian Capital~ Cafes, restaurants and cat~ A3349849A   1982 Aug      3.6
##  6 Australian Capital~ Cafes, restaurants and cat~ A3349849A   1982 Sep      4.2
##  7 Australian Capital~ Cafes, restaurants and cat~ A3349849A   1982 Oct      4.8
##  8 Australian Capital~ Cafes, restaurants and cat~ A3349849A   1982 Nov      5.4
##  9 Australian Capital~ Cafes, restaurants and cat~ A3349849A   1982 Dec      6.9
## 10 Australian Capital~ Cafes, restaurants and cat~ A3349849A   1983 Jan      3.8
## # ... with 1,814 more rows
…
