Chapter 2 Exercise
…
Chapter 2 Exercise

Abhishek Gupta

13/08/2020

Question 1

gafa_stock

## # A tsibble: 5,032 x 8 [1D]
## # Key:       Symbol [4]
##    Symbol Date        Open  High   Low Close Adj_Close    Volume
##    <chr>  <date>     <dbl> <dbl> <dbl> <dbl>     <dbl>     <dbl>
##  1 AAPL   2014-01-02  79.4  79.6  78.9  79.0      67.0  58671200
##  2 AAPL   2014-01-03  79.0  79.1  77.2  77.3      65.5  98116900
##  3 AAPL   2014-01-06  76.8  78.1  76.2  77.7      65.9 103152700
##  4 AAPL   2014-01-07  77.8  78.0  76.8  77.1      65.4  79302300
##  5 AAPL   2014-01-08  77.0  77.9  77.0  77.6      65.8  64632400
##  6 AAPL   2014-01-09  78.1  78.1  76.5  76.6      65.0  69787200
##  7 AAPL   2014-01-10  77.1  77.3  75.9  76.1      64.5  76244000
##  8 AAPL   2014-01-13  75.7  77.5  75.7  76.5      64.9  94623200
##  9 AAPL   2014-01-14  76.9  78.1  76.8  78.1      66.1  83140400
## 10 AAPL   2014-01-15  79.1  80.0  78.8  79.6      67.5  97909700
## # ... with 5,022 more rows
…
PBS

## # A tsibble: 65,219 x 9 [1M]
## # Key:       Concession, Type, ATC1, ATC2 [336]
##       Month Concession  Type   ATC1  ATC1_desc   ATC2  ATC2_desc   Scripts  Cost
##       <mth> <chr>       <chr>  <chr> <chr>       <chr> <chr>         <dbl> <dbl>
##  1 1991 Jul Concession~ Co-pa~ A     Alimentary~ A01   STOMATOLOG~   18228 67877
##  2 1991 Aug Concession~ Co-pa~ A     Alimentary~ A01   STOMATOLOG~   15327 57011
##  3 1991 Sep Concession~ Co-pa~ A     Alimentary~ A01   STOMATOLOG~   14775 55020
##  4 1991 Oct Concession~ Co-pa~ A     Alimentary~ A01   STOMATOLOG~   15380 57222
##  5 1991 Nov Concession~ Co-pa~ A     Alimentary~ A01   STOMATOLOG~   14371 52120
##  6 1991 Dec Concession~ Co-pa~ A     Alimentary~ A01   STOMATOLOG~   15028 54299
##  7 1992 Jan Concession~ Co-pa~ A     Alimentary~ A01   STOMATOLOG~   11040 39753
##  8 1992 Feb Concession~ Co-pa~ A     Alimentary~ A01   STOMATOLOG~   15165 54405
##  9 1992 Mar Concession~ Co-pa~ A     Alimentary~ A01   STOMATOLOG~   16898 61108
## 10 1992 Apr Concession~ Co-pa~ A     Alimentary~ A01   STOMATOLOG~   18141 65356
## # ... with 65,209 more rows
…
vic_elec

## # A tsibble: 52,608 x 5 [30m] <Australia/Melbourne>
##    Time                Demand Temperature Date       Holiday
##    <dttm>               <dbl>       <dbl> <date>     <lgl>  
##  1 2012-01-01 00:00:00  4383.        21.4 2012-01-01 TRUE   
##  2 2012-01-01 00:30:00  4263.        21.0 2012-01-01 TRUE   
##  3 2012-01-01 01:00:00  4049.        20.7 2012-01-01 TRUE   
##  4 2012-01-01 01:30:00  3878.        20.6 2012-01-01 TRUE   
##  5 2012-01-01 02:00:00  4036.        20.4 2012-01-01 TRUE   
##  6 2012-01-01 02:30:00  3866.        20.2 2012-01-01 TRUE   
##  7 2012-01-01 03:00:00  3694.        20.1 2012-01-01 TRUE   
##  8 2012-01-01 03:30:00  3562.        19.6 2012-01-01 TRUE   
##  9 2012-01-01 04:00:00  3433.        19.1 2012-01-01 TRUE   
## 10 2012-01-01 04:30:00  3359.        19.0 2012-01-01 TRUE   
## # ... with 52,598 more rows
…
PP <- pelt %>% as_tibble(index=Year)
PP

## # A tibble: 91 x 3
##     Year  Hare  Lynx
##    <dbl> <dbl> <dbl>
##  1  1845 19580 30090
##  2  1846 19600 45150
##  3  1847 19610 49150
##  4  1848 11990 39520
##  5  1849 28040 21230
##  6  1850 58000  8420
##  7  1851 74600  5560
##  8  1852 75090  5080
##  9  1853 88480 10170
## 10  1854 61280 19600
## # ... with 81 more rows
…
View(tute1)

mytimeseries <- tute1 %>%
  mutate(Quarter = yearmonth(Quarter)) %>%
  as_tsibble(index = Quarter)
mytimeseries

## # A tsibble: 100 x 4 [3M]
##     Quarter Sales AdBudget   GDP
##       <mth> <dbl>    <dbl> <dbl>
##  1 1981 Mar 1020.     659.  252.
##  2 1981 Jun  889.     589   291.
##  3 1981 Sep  795      512.  291.
##  4 1981 Dec 1004.     614.  292.
##  5 1982 Mar 1058.     647.  279.
##  6 1982 Jun  944.     602   254 
##  7 1982 Sep  778.     531.  296.
##  8 1982 Dec  932.     608.  272.
##  9 1983 Mar  996.     638.  260.
## 10 1983 Jun  908.     582.  280.
## # ... with 90 more rows
…
Question 3

tourism_xl <- readxl::read_excel('tourism.xlsx')
tourism_xl

## # A tibble: 24,320 x 5
##    Quarter    Region   State           Purpose  Trips
##    <chr>      <chr>    <chr>           <chr>    <dbl>
##  1 1998-01-01 Adelaide South Australia Business  135.
##  2 1998-04-01 Adelaide South Australia Business  110.
##  3 1998-07-01 Adelaide South Australia Business  166.
##  4 1998-10-01 Adelaide South Australia Business  127.
##  5 1999-01-01 Adelaide South Australia Business  137.
##  6 1999-04-01 Adelaide South Australia Business  200.
##  7 1999-07-01 Adelaide South Australia Business  169.
##  8 1999-10-01 Adelaide South Australia Business  134.
##  9 2000-01-01 Adelaide South Australia Business  154.
## 10 2000-04-01 Adelaide South Australia Business  169.
## # ... with 24,310 more rows

tourism

## # A tsibble: 24,320 x 5 [1Q]
## # Key:       Region, State, Purpose [304]
##    Quarter Region   State           Purpose  Trips
##      <qtr> <chr>    <chr>           <chr>    <dbl>
##  1 1998 Q1 Adelaide South Australia Business  135.
##  2 1998 Q2 Adelaide South Australia Business  110.
##  3 1998 Q3 Adelaide South Australia Business  166.
##  4 1998 Q4 Adelaide South Australia Business  127.
##  5 1999 Q1 Adelaide South Australia Business  137.
##  6 1999 Q2 Adelaide South Australia Business  200.
##  7 1999 Q3 Adelaide South Australia Business  169.
##  8 1999 Q4 Adelaide South Australia Business  134.
##  9 2000 Q1 Adelaide South Australia Business  154.
## 10 2000 Q2 Adelaide South Australia Business  169.
## # ... with 24,310 more rows

tourism_xl_ts <- tourism_xl %>% mutate(Quarter=yearquarter(Quarter)) %>% as_tibble(index=Quarter)
tourism_xl_ts

## # A tibble: 24,320 x 5
##    Quarter Region   State           Purpose  Trips
##      <qtr> <chr>    <chr>           <chr>    <dbl>
##  1 1998 Q1 Adelaide South Australia Business  135.
##  2 1998 Q2 Adelaide South Australia Business  110.
##  3 1998 Q3 Adelaide South Australia Business  166.
##  4 1998 Q4 Adelaide South Australia Business  127.
##  5 1999 Q1 Adelaide South Australia Business  137.
##  6 1999 Q2 Adelaide South Australia Business  200.
##  7 1999 Q3 Adelaide South Australia Business  169.
##  8 1999 Q4 Adelaide South Australia Business  134.
##  9 2000 Q1 Adelaide South Australia Business  154.
## 10 2000 Q2 Adelaide South Australia Business  169.
## # ... with 24,310 more rows
…
Question 4

aus_production

## # A tsibble: 218 x 7 [1Q]
##    Quarter  Beer Tobacco Bricks Cement Electricity   Gas
##      <qtr> <dbl>   <dbl>  <dbl>  <dbl>       <dbl> <dbl>
##  1 1956 Q1   284    5225    189    465        3923     5
##  2 1956 Q2   213    5178    204    532        4436     6
##  3 1956 Q3   227    5297    208    561        4806     7
##  4 1956 Q4   308    5681    197    570        4418     6
##  5 1957 Q1   262    5577    187    529        4339     5
##  6 1957 Q2   228    5651    214    604        4811     7
##  7 1957 Q3   236    5317    227    603        5259     7
##  8 1957 Q4   320    6152    222    582        4735     6
##  9 1958 Q1   272    5758    199    554        4608     5
## 10 1958 Q2   233    5641    229    620        5196     7
## # ... with 208 more rows
…
Question 5

aus_arrivals

## # A tsibble: 508 x 3 [1Q]
## # Key:       Origin [4]
##    Quarter Origin Arrivals
##      <qtr> <chr>     <int>
##  1 1981 Q1 Japan     14763
##  2 1981 Q2 Japan      9321
##  3 1981 Q3 Japan     10166
##  4 1981 Q4 Japan     19509
##  5 1982 Q1 Japan     17117
##  6 1982 Q2 Japan     10617
##  7 1982 Q3 Japan     11737
##  8 1982 Q4 Japan     20961
##  9 1983 Q1 Japan     20671
## 10 1983 Q2 Japan     12235
## # ... with 498 more rows
…
Question 6

aus_retail

## # A tsibble: 64,532 x 5 [1M]
## # Key:       State, Industry [152]
##    State               Industry                    `Series ID`    Month Turnover
##    <chr>               <chr>                       <chr>          <mth>    <dbl>
##  1 Australian Capital~ Cafes, restaurants and cat~ A3349849A   1982 Apr      4.4
##  2 Australian Capital~ Cafes, restaurants and cat~ A3349849A   1982 May      3.4
##  3 Australian Capital~ Cafes, restaurants and cat~ A3349849A   1982 Jun      3.6
##  4 Australian Capital~ Cafes, restaurants and cat~ A3349849A   1982 Jul      4  
##  5 Australian Capital~ Cafes, restaurants and cat~ A3349849A   1982 Aug      3.6
##  6 Australian Capital~ Cafes, restaurants and cat~ A3349849A   1982 Sep      4.2
##  7 Australian Capital~ Cafes, restaurants and cat~ A3349849A   1982 Oct      4.8
##  8 Australian Capital~ Cafes, restaurants and cat~ A3349849A   1982 Nov      5.4
##  9 Australian Capital~ Cafes, restaurants and cat~ A3349849A   1982 Dec      6.9
## 10 Australian Capital~ Cafes, restaurants and cat~ A3349849A   1983 Jan      3.8
## # ... with 64,522 more rows

set.seed(1)
myseries <- aus_retail %>%
 filter(`Series ID` == sample(aus_retail$`Series ID`,1))
myseries

## # A tsibble: 441 x 5 [1M]
## # Key:       State, Industry [1]
##    State      Industry           `Series ID`    Month Turnover
##    <chr>      <chr>              <chr>          <mth>    <dbl>
##  1 Queensland Clothing retailing A3349477X   1982 Apr     28.9
##  2 Queensland Clothing retailing A3349477X   1982 May     30.6
##  3 Queensland Clothing retailing A3349477X   1982 Jun     30.5
##  4 Queensland Clothing retailing A3349477X   1982 Jul     27.9
##  5 Queensland Clothing retailing A3349477X   1982 Aug     27.4
##  6 Queensland Clothing retailing A3349477X   1982 Sep     29.1
##  7 Queensland Clothing retailing A3349477X   1982 Oct     33.4
##  8 Queensland Clothing retailing A3349477X   1982 Nov     35.5
##  9 Queensland Clothing retailing A3349477X   1982 Dec     48.8
## 10 Queensland Clothing retailing A3349477X   1983 Jan     29.7
## # ... with 431 more rows
…
Question 10

dgoog <- gafa_stock %>%
  filter(Symbol == "GOOG", year(Date) >= 2018) %>%
  mutate(trading_day = row_number()) %>%
  update_tsibble(index = trading_day, regular = TRUE) %>%
  mutate(diff = difference(Close))
dgoog

## # A tsibble: 251 x 10 [1]
## # Key:       Symbol [1]
##    Symbol Date        Open  High   Low Close Adj_Close Volume trading_day   diff
##    <chr>  <date>     <dbl> <dbl> <dbl> <dbl>     <dbl>  <dbl>       <int>  <dbl>
##  1 GOOG   2018-01-02 1048. 1067. 1045. 1065      1065  1.24e6           1 NA    
##  2 GOOG   2018-01-03 1064. 1086. 1063. 1082.     1082. 1.43e6           2 17.5  
##  3 GOOG   2018-01-04 1088  1094. 1084. 1086.     1086. 1.00e6           3  3.92 
##  4 GOOG   2018-01-05 1094  1104. 1092  1102.     1102. 1.28e6           4 15.8  
##  5 GOOG   2018-01-08 1102. 1111. 1102. 1107.     1107. 1.05e6           5  4.71 
##  6 GOOG   2018-01-09 1109. 1111. 1101. 1106.     1106. 9.02e5           6 -0.680
##  7 GOOG   2018-01-10 1097. 1105. 1096. 1103.     1103. 1.04e6           7 -3.65 
##  8 GOOG   2018-01-11 1106. 1107. 1100. 1106.     1106. 9.78e5           8  2.91 
##  9 GOOG   2018-01-12 1102. 1124. 1101. 1122.     1122. 1.72e6           9 16.7  
## 10 GOOG   2018-01-16 1133. 1140. 1118. 1122.     1122. 1.58e6          10 -0.5  
## # ... with 241 more rows
…
