Chapter 3 Exercise
…
Chapter 3 Exercise

Abhishek Gupta

18/08/2020

Question 1

global_economy

## # A tsibble: 15,150 x 9 [1Y]
## # Key:       Country [263]
##    Country     Code   Year         GDP Growth   CPI Imports Exports Population
##    <fct>       <fct> <dbl>       <dbl>  <dbl> <dbl>   <dbl>   <dbl>      <dbl>
##  1 Afghanistan AFG    1960  537777811.     NA    NA    7.02    4.13    8996351
##  2 Afghanistan AFG    1961  548888896.     NA    NA    8.10    4.45    9166764
##  3 Afghanistan AFG    1962  546666678.     NA    NA    9.35    4.88    9345868
##  4 Afghanistan AFG    1963  751111191.     NA    NA   16.9     9.17    9533954
##  5 Afghanistan AFG    1964  800000044.     NA    NA   18.1     8.89    9731361
##  6 Afghanistan AFG    1965 1006666638.     NA    NA   21.4    11.3     9938414
##  7 Afghanistan AFG    1966 1399999967.     NA    NA   18.6     8.57   10152331
##  8 Afghanistan AFG    1967 1673333418.     NA    NA   14.2     6.77   10372630
##  9 Afghanistan AFG    1968 1373333367.     NA    NA   15.2     8.90   10604346
## 10 Afghanistan AFG    1969 1408888922.     NA    NA   15.0    10.1    10854428
## # ... with 15,140 more rows
…
Question 4

Chekc chapter 2 exercise.

Question 5

aus_production

## # A tsibble: 218 x 7 [1Q]
##    Quarter  Beer Tobacco Bricks Cement Electricity   Gas
##      <qtr> <dbl>   <dbl>  <dbl>  <dbl>       <dbl> <dbl>
##  1 1956 Q1   284    5225    189    465        3923     5
##  2 1956 Q2   213    5178    204    532        4436     6
##  3 1956 Q3   227    5297    208    561        4806     7
##  4 1956 Q4   308    5681    197    570        4418     6
##  5 1957 Q1   262    5577    187    529        4339     5
##  6 1957 Q2   228    5651    214    604        4811     7
##  7 1957 Q3   236    5317    227    603        5259     7
##  8 1957 Q4   320    6152    222    582        4735     6
##  9 1958 Q1   272    5758    199    554        4608     5
## 10 1958 Q2   233    5641    229    620        5196     7
## # ... with 208 more rows
…
A <- fma::plastics %>% as_tsibble(index=yearmonth(index))

A %>% mutate()

## # A tsibble: 60 x 2 [1M]
##       index value
##       <mth> <dbl>
##  1 0001 Jan   742
##  2 0001 Feb   697
##  3 0001 Mar   776
##  4 0001 Apr   898
##  5 0001 May  1030
##  6 0001 Jun  1107
##  7 0001 Jul  1165
##  8 0001 Aug  1216
##  9 0001 Sep  1208
## 10 0001 Oct  1131
## # ... with 50 more rows

A

## # A tsibble: 60 x 2 [1M]
##       index value
##       <mth> <dbl>
##  1 0001 Jan   742
##  2 0001 Feb   697
##  3 0001 Mar   776
##  4 0001 Apr   898
##  5 0001 May  1030
##  6 0001 Jun  1107
##  7 0001 Jul  1165
##  8 0001 Aug  1216
##  9 0001 Sep  1208
## 10 0001 Oct  1131
## # ... with 50 more rows
